<?xml version="1.0"?>
<robot xmlns:xacro="http://wiki.ros.org/xacro" name="ur5" >

<!--~~~~~~~~~~~~~~~~~~~~~~~~~~~~~~~~~~~~~~~~~~ Robot ~~~~~~~~~~~~~~~~~~~~~~~~~~~~~~~~~~~~-->
  <xacro:include filename="$(find ur_description)/urdf/ur5.urdf.xacro" />
<!--~~~~~~~~~~~~~~~~~~~~~~~~~~~~~~~~~~~~~End Effector ~~~~~~~~~~~~~~~~~~~~~~~~~~~~~~~~~~~-->
  <xacro:include filename="$(find robotiq_85_description)/urdf/robotiq_85_gripper.urdf.xacro"/>
<!--~~~~~~~~~~~~~~~~~~~~~~~~~~~~~~~~Environmental Objects ~~~~~~~~~~~~~~~~~~~~~~~~~~~~~~~-->
  <xacro:include filename="$(find table_description)/urdf/table.urdf.xacro" />
  <xacro:include filename="$(find belt_description)/urdf/belt.urdf.xacro" />
<!--~~~~~~~~~~~~~~~~~~~~~~~~~~~~~~~~ Camera ~~~~~~~~~~~~~~~~~~~~~~~~~~~~~~~-->
  <xacro:include filename="$(find realsense2_description)/urdf/_d415.urdf.xacro"/>
<!--~~~~~~~~~~~~~~~~~~~~~~~~~~~~~~~~ Spawn Objects ~~~~~~~~~~~~~~~~~~~~~~~~~~~~~~~-->
  <xacro:ur5_robot prefix="" joint_limited="false"/>
  <xacro:robotiq_85_gripper prefix=""/>
  <xacro:table prefix=""/>
  <xacro:belt prefix=""/> 
  <xacro:sensor_d415 parent="world">
     <origin xyz="-0.6385 0.2 0.56" rpy="0 1.57079506 0"/>
  </xacro:sensor_d415>

<!--~~~~~~~~~~~~~~~~~~~~~~~~~~~~~~~~ link declaration ~~~~~~~~~~~~~~~~~~~~~~~~~~~~~~~-->
  <link name="world" />
  <link name="camera_frame"/>
<!--~~~~~~~~~~~~~~~~~~~~~~~~~~~~~~~~ Joint Declaration ~~~~~~~~~~~~~~~~~~~~~~~~~~~~~~~-->

  <joint name="robot_to_table" type="fixed">
    <parent link="base_link"/>
    <child link="table"/>
    <origin xyz="1 0 0" rpy="0 0 0" />
  </joint>   

  <joint name="robot_to_ee" type="fixed">
    <parent link="ee_link"/>
    <child link="gripper_base_link"/>
  </joint> 

<joint name="d415_to_camera" type="fixed">
    <parent link="camera_link"/>
    <child link="camera_frame"/>
    <origin xyz="0 0 0" rpy="-1.57079506 0 -1.57079506"/>
  </joint>

  <joint name="belt_joint" type="fixed">
    <parent link="base_link"/>
    <child link="belt"/>
    <origin xyz="0.325 0.25 0" rpy="0 0 1.570795"/>
  </joint>   
  
  <joint name="world_joint" type="fixed">
    <parent link="world" />
    <child link = "base_link" />
    <origin xyz="0.0 0.0 0.0" rpy="0.0 0.0 0.0" />
  </joint>
</robot>
