<?xml version="1.0" ?>
<!--This does not replace URDF, and is not an extension of URDF.
    This is a format for representing semantic information about the robot structure.
    A URDF file must exist for this robot as well, where the joints and the links that are referenced are defined
-->
<robot xmlns:xacro="http://www.ros.org/wiki/xacro" name="ur5">
  <xacro:include filename="$(find ur5_moveit_config)/config/ur5.xacro" />
  <xacro:include filename="$(find suction_gripper_moveit_config)/config/suction_gripper.xacro" />
  <xacro:ur5 />
  <xacro:suction_gripper />

    <!--DISABLE COLLISIONS: By default it is assumed that any link of the robot could potentially come into collision with any other link in the robot. This tag disables collision checking between a specified pair of links. -->
    <disable_collisions link1="wrist_fixture" link2="base_link" reason="Never" />
    <disable_collisions link1="wrist_fixture" link2="ee_link" reason="Never" />
    <disable_collisions link1="wrist_fixture" link2="wrist_1_link" reason="Never" />
    <disable_collisions link1="wrist_fixture" link2="wrist_2_link" reason="Never" />
    <disable_collisions link1="wrist_fixture" link2="wrist_3_link" reason="Never" />
</robot>
